5 Manipulating data with dplyr | Introduction to R - tidyverse
…
Let’s filter the mpg_df data for cars manufactured in the year 1999:

mpg_df %>% filter(year == 1999)

## # A tibble: 117 x 11
##    manufacturer model              displ  year   cyl trans      drv     cty   hwy fl    class  
##    <chr>        <chr>              <dbl> <int> <int> <chr>      <chr> <int> <int> <chr> <chr>  
##  1 audi         a4                   1.8  1999     4 auto(l5)   f        18    29 p     compact
##  2 audi         a4                   1.8  1999     4 manual(m5) f        21    29 p     compact
##  3 audi         a4                   2.8  1999     6 auto(l5)   f        16    26 p     compact
##  4 audi         a4                   2.8  1999     6 manual(m5) f        18    26 p     compact
##  5 audi         a4 quattro           1.8  1999     4 manual(m5) 4        18    26 p     compact
##  6 audi         a4 quattro           1.8  1999     4 auto(l5)   4        16    25 p     compact
##  7 audi         a4 quattro           2.8  1999     6 auto(l5)   4        15    25 p     compact
##  8 audi         a4 quattro           2.8  1999     6 manual(m5) 4        17    25 p     compact
##  9 audi         a6 quattro           2.8  1999     6 auto(l5)   4        15    24 p     midsize
## 10 chevrolet    c1500 suburban 2wd   5.7  1999     8 auto(l4)   r        13    17 r     suv    
## # … with 107 more rows
Here we are ‘sending’ the mpg_df data frame into the function filter(), which tests each value in the year column for the number 1999, and returns those rows where the filter() condition is TRUE.

If you are working in an R text document (.R format) or directly in the console, after running this command you will see the dimensions of the output data frame printed in grey text above the column names.

Alternatively you can ‘send’ the output of filter (a data frame) into the dim() function.

mpg_df %>% filter(year==1999) %>% dim()

## [1] 117  11

We can also filter on character data. For example, let’s take all vehicles in the ‘midsize’ class:

mpg_df %>% filter(class=='midsize')

## # A tibble: 41 x 11
##    manufacturer model      displ  year   cyl trans      drv     cty   hwy fl    class  
##    <chr>        <chr>      <dbl> <int> <int> <chr>      <chr> <int> <int> <chr> <chr>  
##  1 audi         a6 quattro   2.8  1999     6 auto(l5)   4        15    24 p     midsize
##  2 audi         a6 quattro   3.1  2008     6 auto(s6)   4        17    25 p     midsize
##  3 audi         a6 quattro   4.2  2008     8 auto(s6)   4        16    23 p     midsize
##  4 chevrolet    malibu       2.4  1999     4 auto(l4)   f        19    27 r     midsize
##  5 chevrolet    malibu       2.4  2008     4 auto(l4)   f        22    30 r     midsize
##  6 chevrolet    malibu       3.1  1999     6 auto(l4)   f        18    26 r     midsize
##  7 chevrolet    malibu       3.5  2008     6 auto(l4)   f        18    29 r     midsize
##  8 chevrolet    malibu       3.6  2008     6 auto(s6)   f        17    26 r     midsize
##  9 hyundai      sonata       2.4  1999     4 auto(l4)   f        18    26 r     midsize
## 10 hyundai      sonata       2.4  1999     4 manual(m5) f        18    27 r     midsize
## # … with 31 more rows

Can you filter mpg_df for all vehicles except the Hyundais?

5.1.1 Logical operations

5.1.1.1 & and

We can achieve more specific filters by combining conditions across columns. For example, we use the “&” sign to filter for vehicles built in 1999 and with mileage in the city (cty) greater than 18.

mpg_df %>% filter(year == 1999 & cty > 18)

## # A tibble: 33 x 11
##    manufacturer model   displ  year   cyl trans      drv     cty   hwy fl    class     
##    <chr>        <chr>   <dbl> <int> <int> <chr>      <chr> <int> <int> <chr> <chr>     
##  1 audi         a4        1.8  1999     4 manual(m5) f        21    29 p     compact   
##  2 chevrolet    malibu    2.4  1999     4 auto(l4)   f        19    27 r     midsize   
##  3 honda        civic     1.6  1999     4 manual(m5) f        28    33 r     subcompact
##  4 honda        civic     1.6  1999     4 auto(l4)   f        24    32 r     subcompact
##  5 honda        civic     1.6  1999     4 manual(m5) f        25    32 r     subcompact
##  6 honda        civic     1.6  1999     4 manual(m5) f        23    29 p     subcompact
##  7 honda        civic     1.6  1999     4 auto(l4)   f        24    32 r     subcompact
##  8 hyundai      tiburon   2    1999     4 auto(l4)   f        19    26 r     subcompact
##  9 hyundai      tiburon   2    1999     4 manual(m5) f        19    29 r     subcompact
## 10 nissan       altima    2.4  1999     4 manual(m5) f        21    29 r     compact   
## # … with 23 more rows

To see the entire output you can pipe the output from filter into a View() command

mpg_df %>% filter(year==1999 & cty > 18) %>% View()

5.1.1.2 | or

Alternatively we might want to filter for vehicles (i.e., rows) where the manufacturer is Chevrolet or the class is ‘suv’. This requires the “|” symbol (shift + \)

mpg_df %>% filter(manufacturer=='chevrolet' | class=='suv')

## # A tibble: 72 x 11
##    manufacturer model              displ  year   cyl trans      drv     cty   hwy fl    class  
##    <chr>        <chr>              <dbl> <int> <int> <chr>      <chr> <int> <int> <chr> <chr>  
##  1 chevrolet    c1500 suburban 2wd   5.3  2008     8 auto(l4)   r        14    20 r     suv    
##  2 chevrolet    c1500 suburban 2wd   5.3  2008     8 auto(l4)   r        11    15 e     suv    
##  3 chevrolet    c1500 suburban 2wd   5.3  2008     8 auto(l4)   r        14    20 r     suv    
##  4 chevrolet    c1500 suburban 2wd   5.7  1999     8 auto(l4)   r        13    17 r     suv    
##  5 chevrolet    c1500 suburban 2wd   6    2008     8 auto(l4)   r        12    17 r     suv    
##  6 chevrolet    corvette             5.7  1999     8 manual(m6) r        16    26 p     2seater
##  7 chevrolet    corvette             5.7  1999     8 auto(l4)   r        15    23 p     2seater
##  8 chevrolet    corvette             6.2  2008     8 manual(m6) r        16    26 p     2seater
##  9 chevrolet    corvette             6.2  2008     8 auto(s6)   r        15    25 p     2seater
## 10 chevrolet    corvette             7    2008     8 manual(m6) r        15    24 p     2seater
## # … with 62 more rows

5.1.1.3 and/or

To take it a step further we can combine & and | in the same filter command. Adding curved brackets will help to clarify the order of operations.

Let’s filter for the vehicles where the manufacturer is Chevrolet or the class is ‘suv’, and all vehicles with highway mileage less than 20.

mpg_df %>% filter( (manufacturer=='chevrolet' | class=='suv') & hwy < 20) 

## # A tibble: 48 x 11
##    manufacturer model              displ  year   cyl trans    drv     cty   hwy fl    class
##    <chr>        <chr>              <dbl> <int> <int> <chr>    <chr> <int> <int> <chr> <chr>
##  1 chevrolet    c1500 suburban 2wd   5.3  2008     8 auto(l4) r        11    15 e     suv  
##  2 chevrolet    c1500 suburban 2wd   5.7  1999     8 auto(l4) r        13    17 r     suv  
##  3 chevrolet    c1500 suburban 2wd   6    2008     8 auto(l4) r        12    17 r     suv  
##  4 chevrolet    k1500 tahoe 4wd      5.3  2008     8 auto(l4) 4        14    19 r     suv  
##  5 chevrolet    k1500 tahoe 4wd      5.3  2008     8 auto(l4) 4        11    14 e     suv  
##  6 chevrolet    k1500 tahoe 4wd      5.7  1999     8 auto(l4) 4        11    15 r     suv  
##  7 chevrolet    k1500 tahoe 4wd      6.5  1999     8 auto(l4) 4        14    17 d     suv  
##  8 dodge        durango 4wd          3.9  1999     6 auto(l4) 4        13    17 r     suv  
##  9 dodge        durango 4wd          4.7  2008     8 auto(l5) 4        13    17 r     suv  
## 10 dodge        durango 4wd          4.7  2008     8 auto(l5) 4         9    12 e     suv  
## # … with 38 more rows

5.1.2 str_detect() helper function

Often we want to capture rows containing a particular sequence of letters. For example, there are 10 different vehicle models containing the letters ‘4wd’. We don’t want to have to write an ‘or’ command with 10 alternatives.

A much better way is to ‘detect’ the letters ‘4wd’ in the model column, and return all rows where they are present, using str_detect().

str_detect() is a command within filter() which requires the column name, followed by the letters (in quotes) to search for

mpg_df %>% filter(str_detect(model,'4wd')) 

## # A tibble: 74 x 11
##    manufacturer model             displ  year   cyl trans      drv     cty   hwy fl    class 
##    <chr>        <chr>             <dbl> <int> <int> <chr>      <chr> <int> <int> <chr> <chr> 
##  1 chevrolet    k1500 tahoe 4wd     5.3  2008     8 auto(l4)   4        14    19 r     suv   
##  2 chevrolet    k1500 tahoe 4wd     5.3  2008     8 auto(l4)   4        11    14 e     suv   
##  3 chevrolet    k1500 tahoe 4wd     5.7  1999     8 auto(l4)   4        11    15 r     suv   
##  4 chevrolet    k1500 tahoe 4wd     6.5  1999     8 auto(l4)   4        14    17 d     suv   
##  5 dodge        dakota pickup 4wd   3.7  2008     6 manual(m6) 4        15    19 r     pickup
##  6 dodge        dakota pickup 4wd   3.7  2008     6 auto(l4)   4        14    18 r     pickup
##  7 dodge        dakota pickup 4wd   3.9  1999     6 auto(l4)   4        13    17 r     pickup
##  8 dodge        dakota pickup 4wd   3.9  1999     6 manual(m5) 4        14    17 r     pickup
##  9 dodge        dakota pickup 4wd   4.7  2008     8 auto(l5)   4        14    19 r     pickup
## 10 dodge        dakota pickup 4wd   4.7  2008     8 auto(l5)   4        14    19 r     pickup
## # … with 64 more rows

Note that the letter order and case have to be matched exactly.

How would you filter for all vehicles with automatic transmission?

5.1.3 %in% helper

When we are interested in a subset of rows that can contain several different values, instead of writing a long OR command, its useful to just give a vector of values of interest.

For example, to take the subset of the vehicles in mpg_df that have 4, 5, or 6 cylinders, we can specify cyl %in% c(4,5,6)

mpg_df %>% filter(cyl %in% c(4,5,6))

## # A tibble: 164 x 11
##    manufacturer model      displ  year   cyl trans      drv     cty   hwy fl    class  
##    <chr>        <chr>      <dbl> <int> <int> <chr>      <chr> <int> <int> <chr> <chr>  
##  1 audi         a4           1.8  1999     4 auto(l5)   f        18    29 p     compact
##  2 audi         a4           1.8  1999     4 manual(m5) f        21    29 p     compact
##  3 audi         a4           2    2008     4 manual(m6) f        20    31 p     compact
##  4 audi         a4           2    2008     4 auto(av)   f        21    30 p     compact
##  5 audi         a4           2.8  1999     6 auto(l5)   f        16    26 p     compact
##  6 audi         a4           2.8  1999     6 manual(m5) f        18    26 p     compact
##  7 audi         a4           3.1  2008     6 auto(av)   f        18    27 p     compact
##  8 audi         a4 quattro   1.8  1999     4 manual(m5) 4        18    26 p     compact
##  9 audi         a4 quattro   1.8  1999     4 auto(l5)   4        16    25 p     compact
## 10 audi         a4 quattro   2    2008     4 manual(m6) 4        20    28 p     compact
## # … with 154 more rows
…
The mpg data set doesn’t contain any missing values, however in later chapters we will encounter them.

Any rows with a missing value in the year column would be dropped using the code

mpg %>% filter(!is.na(year))

5.1.5 complete.cases() helper

Similar to is.na(), we can check for the presence of NA values across all columns of a dataframe using complete.cases(). This function is not part of the tidyverse package, so it requires a period . within the brackets, to indicate that we want to search across the entire dataframe.

To filter for only the rows with no missing values:

mpg %>% filter( complete.cases(.) )

## # A tibble: 234 x 11
##    manufacturer model      displ  year   cyl trans      drv     cty   hwy fl    class  
##    <chr>        <chr>      <dbl> <int> <int> <chr>      <chr> <int> <int> <chr> <chr>  
##  1 audi         a4           1.8  1999     4 auto(l5)   f        18    29 p     compact
##  2 audi         a4           1.8  1999     4 manual(m5) f        21    29 p     compact
##  3 audi         a4           2    2008     4 manual(m6) f        20    31 p     compact
##  4 audi         a4           2    2008     4 auto(av)   f        21    30 p     compact
##  5 audi         a4           2.8  1999     6 auto(l5)   f        16    26 p     compact
##  6 audi         a4           2.8  1999     6 manual(m5) f        18    26 p     compact
##  7 audi         a4           3.1  2008     6 auto(av)   f        18    27 p     compact
##  8 audi         a4 quattro   1.8  1999     4 manual(m5) 4        18    26 p     compact
##  9 audi         a4 quattro   1.8  1999     4 auto(l5)   4        16    25 p     compact
## 10 audi         a4 quattro   2    2008     4 manual(m6) 4        20    28 p     compact
## # … with 224 more rows
…
This function can take column names (even without quotes), or the column position number beginning at left.

Further, unlike in base R, commands within the brackets in select() do not need to be concatenated using c().

Let’s extract the car model, engine volume (displ) and highway mileage (hwy) from mpg_df:

mpg_df %>% select(model, displ, hwy)

## # A tibble: 234 x 3
##    model      displ   hwy
##    <chr>      <dbl> <int>
##  1 a4           1.8    29
##  2 a4           1.8    29
##  3 a4           2      31
##  4 a4           2      30
##  5 a4           2.8    26
##  6 a4           2.8    26
##  7 a4           3.1    27
##  8 a4 quattro   1.8    26
##  9 a4 quattro   1.8    25
## 10 a4 quattro   2      28
## # … with 224 more rows

We can use ‘-’ to extract all except particular column(s). For example, to drop the model and year columns:

mpg_df %>% select(-model, -year)

## # A tibble: 234 x 9
##    manufacturer displ   cyl trans      drv     cty   hwy fl    class  
##    <chr>        <dbl> <int> <chr>      <chr> <int> <int> <chr> <chr>  
##  1 audi           1.8     4 auto(l5)   f        18    29 p     compact
##  2 audi           1.8     4 manual(m5) f        21    29 p     compact
##  3 audi           2       4 manual(m6) f        20    31 p     compact
##  4 audi           2       4 auto(av)   f        21    30 p     compact
##  5 audi           2.8     6 auto(l5)   f        16    26 p     compact
##  6 audi           2.8     6 manual(m5) f        18    26 p     compact
##  7 audi           3.1     6 auto(av)   f        18    27 p     compact
##  8 audi           1.8     4 manual(m5) 4        18    26 p     compact
##  9 audi           1.8     4 auto(l5)   4        16    25 p     compact
## 10 audi           2       4 manual(m6) 4        20    28 p     compact
## # … with 224 more rows

We can also specify column positions. Take the data in columns number 1,5 and 11

mpg_df %>% select(1,5,11)

## # A tibble: 234 x 3
##    manufacturer   cyl class  
##    <chr>        <int> <chr>  
##  1 audi             4 compact
##  2 audi             4 compact
##  3 audi             4 compact
##  4 audi             4 compact
##  5 audi             6 compact
##  6 audi             6 compact
##  7 audi             6 compact
##  8 audi             4 compact
##  9 audi             4 compact
## 10 audi             4 compact
## # … with 224 more rows

Or combine column positions and names:

mpg_df %>% select(1,3, cty, hwy)

## # A tibble: 234 x 4
##    manufacturer displ   cty   hwy
##    <chr>        <dbl> <int> <int>
##  1 audi           1.8    18    29
##  2 audi           1.8    21    29
##  3 audi           2      20    31
##  4 audi           2      21    30
##  5 audi           2.8    16    26
##  6 audi           2.8    18    26
##  7 audi           3.1    18    27
##  8 audi           1.8    18    26
##  9 audi           1.8    16    25
## 10 audi           2      20    28
## # … with 224 more rows

5.2.1 contains() helper function

contains() is a helper function used with select(), which is analogous to the str_detect() helper used with filter().

To select only columns with names containing the letter ‘y’:

mpg_df %>% select(contains('y'))

## # A tibble: 234 x 4
##     year   cyl   cty   hwy
##    <int> <int> <int> <int>
##  1  1999     4    18    29
##  2  1999     4    21    29
##  3  2008     4    20    31
##  4  2008     4    21    30
##  5  1999     6    16    26
##  6  1999     6    18    26
##  7  2008     6    18    27
##  8  1999     4    18    26
##  9  1999     4    16    25
## 10  2008     4    20    28
## # … with 224 more rows

contains() is also useful for selecting all column names featuring a certain character, e.g. contains(’_’)

5.2.2 starts_with() helper function

start_with() and ends_with() offer more specificity for select(). If we want all columns beginning with the letter ‘c’:

mpg_df %>% select(starts_with('c'))

## # A tibble: 234 x 3
##      cyl   cty class  
##    <int> <int> <chr>  
##  1     4    18 compact
##  2     4    21 compact
##  3     4    20 compact
##  4     4    21 compact
##  5     6    16 compact
##  6     6    18 compact
##  7     6    18 compact
##  8     4    18 compact
##  9     4    16 compact
## 10     4    20 compact
## # … with 224 more rows

Happily we can even mix these helper functions with the standard select commands:

mpg_df %>% select( 2, 1, class, contains('y'))

## # A tibble: 234 x 7
##    model      manufacturer class    year   cyl   cty   hwy
##    <chr>      <chr>        <chr>   <int> <int> <int> <int>
##  1 a4         audi         compact  1999     4    18    29
##  2 a4         audi         compact  1999     4    21    29
##  3 a4         audi         compact  2008     4    20    31
##  4 a4         audi         compact  2008     4    21    30
##  5 a4         audi         compact  1999     6    16    26
##  6 a4         audi         compact  1999     6    18    26
##  7 a4         audi         compact  2008     6    18    27
##  8 a4 quattro audi         compact  1999     4    18    26
##  9 a4 quattro audi         compact  1999     4    16    25
## 10 a4 quattro audi         compact  2008     4    20    28
## # … with 224 more rows

5.2.3 everything() helper function

Lastly for select(), a very useful helper is the everything() function, which returns all column names that have not been specified. It is often used when reordering all columns in a dataframe:

mpg_df %>% select(class,displ,year,everything())

## # A tibble: 234 x 11
##    class   displ  year manufacturer model        cyl trans      drv     cty   hwy fl   
##    <chr>   <dbl> <int> <chr>        <chr>      <int> <chr>      <chr> <int> <int> <chr>
##  1 compact   1.8  1999 audi         a4             4 auto(l5)   f        18    29 p    
##  2 compact   1.8  1999 audi         a4             4 manual(m5) f        21    29 p    
##  3 compact   2    2008 audi         a4             4 manual(m6) f        20    31 p    
##  4 compact   2    2008 audi         a4             4 auto(av)   f        21    30 p    
##  5 compact   2.8  1999 audi         a4             6 auto(l5)   f        16    26 p    
##  6 compact   2.8  1999 audi         a4             6 manual(m5) f        18    26 p    
##  7 compact   3.1  2008 audi         a4             6 auto(av)   f        18    27 p    
##  8 compact   1.8  1999 audi         a4 quattro     4 manual(m5) 4        18    26 p    
##  9 compact   1.8  1999 audi         a4 quattro     4 auto(l5)   4        16    25 p    
## 10 compact   2    2008 audi         a4 quattro     4 manual(m6) 4        20    28 p    
## # … with 224 more rows
…
