6 Reading, tidying & joining data | Introduction to R - tidyverse
…
names_from indicates the column containing the labels which will be come the new column names.

values from indicates the column containing the values that will populate the the new columns.

To transform the illustrative table above at left (df_long) into the result at right, would require:

df_long %>% pivot_wider(names_from = V1, values_from = V2).

Note that the ‘shape’ of the dataframe is being converted from longer (more rows) to wider (more columns).

In our case, to reshape Hs_entrez_annot, we will use the column names annot_type, and annot_text:

Hs_entrez_annot %>% pivot_wider(names_from = annot_type, values_from = annot_text)

## # A tibble: 153 x 3
##    entrez_id symbol gene_name                                    
##        <dbl> <chr>  <chr>                                        
##  1        21 ABCA3  ATP binding cassette subfamily A member 3    
##  2        90 ACVR1  activin A receptor type 1                    
##  3        91 ACVR1B activin A receptor type 1B                   
##  4       156 ADRBK1 adrenergic, beta, receptor kinase 1          
##  5       207 AKT1   v-akt murine thymoma viral oncogene homolog 1
##  6       566 AZU1   azurocidin 1                                 
##  7       596 BCL2   B-cell CLL/lymphoma 2                        
##  8       655 BMP7   bone morphogenetic protein 7                 
##  9       722 C4BPA  complement component 4 binding protein alpha 
## 10       725 C4BPB  complement component 4 binding protein beta  
## # … with 143 more rows
…
We can see there are many NA values in these columns, as each GOID relates to a single type of ontology. That is, if there is text in BP, then CC and MF will be NA values.

If we consider the text in this table as individual ‘values’ then the table is technically tidy, but the information is sparsely populated throughout.

To eliminate the NA values we first use pivot_longer(), with the aim of converting to long format those columns containing ontology descriptions: BP,CC, and MF.

The new column for labels will be ‘ONTOLOGY’, and the new column containing the associated text will be ‘DESCRIPTION’

GO_terms %>% 
  pivot_longer(cols = c(BP,CC,MF),  
               names_to = 'ONTOLOGY',
               values_to = 'DESCRIPTION')

## # A tibble: 36 x 4
##    GOID    DEFINITION                                 ONTOLOGY DESCRIPTION                          
##    <chr>   <chr>                                      <chr>    <chr>                                
##  1 GO:190… Any process that stops, prevents or reduc… BP       negative regulation of vesicle trans…
##  2 GO:190… Any process that stops, prevents or reduc… CC       <NA>                                 
##  3 GO:190… Any process that stops, prevents or reduc… MF       <NA>                                 
##  4 GO:004… The directed movement of a vesicle along … BP       vesicle transport along microtubule  
##  5 GO:004… The directed movement of a vesicle along … CC       <NA>                                 
##  6 GO:004… The directed movement of a vesicle along … MF       <NA>                                 
##  7 GO:001… The phosphorylation of peptidyl-threonine… BP       peptidyl-threonine phosphorylation   
##  8 GO:001… The phosphorylation of peptidyl-threonine… CC       <NA>                                 
##  9 GO:001… The phosphorylation of peptidyl-threonine… MF       <NA>                                 
## 10 GO:000… Any process that stops, prevents, or redu… BP       negative regulation of humoral immun…
## # … with 26 more rows
…
Now we can drop the entrez_multi column because we have captured it in entz_nest, and check the output using View()

GO_entrez_sep %>% 
  mutate(entz_nest = str_split(entrez_multi, pattern = ',')) %>% 
  select( -entrez_multi ) %>% 
  View()

Finally we can unnest() the entz_nest column, using col = entz_nest, which produces a long-form table

GO_entrez_sep %>%
  mutate(entz_nest = str_split(entrez_multi, pattern = ',')) %>% 
  select( -entrez_multi ) %>%
  unnest(col = entz_nest)

## # A tibble: 155 x 4
##    rowname prefix code_only entz_nest
##      <dbl> <chr>  <chr>     <chr>    
##  1       1 GO     0002924   722      
##  2       1 GO     0002924   725      
##  3       1 GO     0002924   1378     
##  4       1 GO     0002924   2302     
##  5       1 GO     0002924   5777     
##  6       1 GO     0002924   55061    
##  7       2 GO     0006743   3156     
##  8       2 GO     0006743   4704     
##  9       2 GO     0006743   10229    
## 10       2 GO     0006743   23590    
## # … with 145 more rows

6.3.3 rename()

Given that the entz_nest column is no longer a nested list, we might want to rename it. The rename() function can help here. It simply takes the form ‘new column name’ = ‘existing name’:

GO_entrez_sep %>% 
  mutate(entz_nest = str_split(entrez_multi, pattern = ',')) %>% 
  select( -entrez_multi ) %>% 
  unnest(col = entz_nest) %>% 
  rename(entrez_id = entz_nest)

## # A tibble: 155 x 4
##    rowname prefix code_only entrez_id
##      <dbl> <chr>  <chr>     <chr>    
##  1       1 GO     0002924   722      
##  2       1 GO     0002924   725      
##  3       1 GO     0002924   1378     
##  4       1 GO     0002924   2302     
##  5       1 GO     0002924   5777     
##  6       1 GO     0002924   55061    
##  7       2 GO     0006743   3156     
##  8       2 GO     0006743   4704     
##  9       2 GO     0006743   10229    
## 10       2 GO     0006743   23590    
## # … with 145 more rows
…
The unite() function is the complement of separate(), and requires two arguments: a name for the new column that will contain the united values, and a vector of the names of the columns to unite.

We can optionally provide a separator (sep =) to insert between the combined values. If we don’t add a command here the values will be separated by underscores _.

In this case we want to insert a colon : to reproduce the desired GOID

GO_entrez_sep_long %>% unite(GOID, c(prefix, code_only), sep=":")

## # A tibble: 155 x 3
##    rowname GOID       entrez_id
##      <dbl> <chr>      <chr>    
##  1       1 GO:0002924 722      
##  2       1 GO:0002924 725      
##  3       1 GO:0002924 1378     
##  4       1 GO:0002924 2302     
##  5       1 GO:0002924 5777     
##  6       1 GO:0002924 55061    
##  7       2 GO:0006743 3156     
##  8       2 GO:0006743 4704     
##  9       2 GO:0006743 10229    
## 10       2 GO:0006743 23590    
## # … with 145 more rows
…
