Week 4. Part 2 | Introduction to R - tidyverse
…
The structure in the data is clear, but the rows and columns are all jumbled. This is because they are currently character data, and would work better as integers (numeric data).

7.6.1 str_remove() helper

To convert the ROW and COL data to numeric, its easiest to remove the letters from the data using str_remove().
str_remove() requires first the column name to modify, and the ‘pattern’ (in our case the letter) to remove.

This function, and other str_ family functions, are often used inside mutate() to create a new column containing the resulting data. However, they can be used to modify a vector of text values, as you will see later in the extract filenames section.

plate_long %>% mutate(ROW_num = str_remove(ROW,'R'))

## # A tibble: 1,536 x 4
##    ROW   COL     LUMIN ROW_num
##    <chr> <chr>   <dbl> <chr>  
##  1 R1    C1      6174. 1      
##  2 R1    C2    187493. 1      
##  3 R1    C3    211526  1      
##  4 R1    C4    205900  1      
##  5 R1    C5    197694  1      
##  6 R1    C6    209756  1      
##  7 R1    C7    201435  1      
##  8 R1    C8    174091  1      
##  9 R1    C9    205579  1      
## 10 R1    C10   196761  1      
## # … with 1,526 more rows

7.6.2 as.numeric() helper

ROW_num is still character data! We need to run a second mutate with as.numeric() to convert ROW_num into numeric data:

plate_long %>% 
  mutate(ROW_num = str_remove(ROW,'R')) %>% 
  mutate(ROW_num = as.numeric(ROW_num))

## # A tibble: 1,536 x 4
##    ROW   COL     LUMIN ROW_num
##    <chr> <chr>   <dbl>   <dbl>
##  1 R1    C1      6174.       1
##  2 R1    C2    187493.       1
##  3 R1    C3    211526        1
##  4 R1    C4    205900        1
##  5 R1    C5    197694        1
##  6 R1    C6    209756        1
##  7 R1    C7    201435        1
##  8 R1    C8    174091        1
##  9 R1    C9    205579        1
## 10 R1    C10   196761        1
## # … with 1,526 more rows
…
7.7 Statistical summary

We can now see there are four entire columns of very low luminescence in screen_plate, corresponding to dead cells. These are the positive controls in columns 1,23,25 and 47. There are also four negative control columns (DMSO-treated cells) at positions 2, 24, 26 and 48. These should be happy and healthy.

Our task is to identify wells with luminescence values > 4 standard deviations from the mean (defined by negative controls), corresponding to a p value < 0.01.

To find these we should first label the columns in the long-format dataframe as ‘test’, ‘posCTRL’ or ‘negCTRL’. Here we use case_when() and the %in% helper to create a column of labels named ‘well_tag’:

plate_long_num %>% 
  mutate(well_tag = case_when(COL_num %in% c(1,23,25,47) ~ 'posCTRL',
                              COL_num %in% c(2,24,26,48) ~ 'negCTRL',
                              TRUE ~ 'test'))

## # A tibble: 1,536 x 6
##    ROW   COL     LUMIN ROW_num COL_num well_tag
##    <chr> <chr>   <dbl>   <dbl>   <dbl> <chr>   
##  1 R1    C1      6174.       1       1 posCTRL 
##  2 R1    C2    187493.       1       2 negCTRL 
##  3 R1    C3    211526        1       3 test    
##  4 R1    C4    205900        1       4 test    
##  5 R1    C5    197694        1       5 test    
##  6 R1    C6    209756        1       6 test    
##  7 R1    C7    201435        1       7 test    
##  8 R1    C8    174091        1       8 test    
##  9 R1    C9    205579        1       9 test    
## 10 R1    C10   196761        1      10 test    
## # … with 1,526 more rows
…
To allow the mean and sd to have different values according to the input data, they have to be stored in variables which are then used in a z-score calculation. We need to extract each into a single-value vector.
The pull() function is a handy way to ‘pull’ the values in a dataframe column out into a vector.

meanNeg <- neg_summ %>% pull(mean_neg)

sdNeg <- neg_summ %>% pull(sd_neg)

7.8 Identify hits

Now let’s use the single values calculated for the mean and standard deviation of negative control wells in a mutate() command and calculate the z score for each well

plate_tagged %>% filter(well_tag=='test') %>% 
  mutate(z_score = (LUMIN - meanNeg) / sdNeg) 

## # A tibble: 1,280 x 7
##    ROW   COL    LUMIN ROW_num COL_num well_tag z_score
##    <chr> <chr>  <dbl>   <dbl>   <dbl> <chr>      <dbl>
##  1 R1    C3    211526       1       3 test       1.24 
##  2 R1    C4    205900       1       4 test       0.684
##  3 R1    C5    197694       1       5 test      -0.130
##  4 R1    C6    209756       1       6 test       1.07 
##  5 R1    C7    201435       1       7 test       0.241
##  6 R1    C8    174091       1       8 test      -2.47 
##  7 R1    C9    205579       1       9 test       0.652
##  8 R1    C10   196761       1      10 test      -0.222
##  9 R1    C11   204813       1      11 test       0.576
## 10 R1    C12   208347       1      12 test       0.927
## # … with 1,270 more rows
…
