8 What the factor? | Introduction to R - tidyverse
…
We intuitively use different ‘ordering labels’ in our heads for the same numbers, according to these two contexts.

Another example is the flow of seasons throughout the calendar year.
In the northern hemisphere the seasons follow Winter > Spring > Summer > Autumn. In the southern hemisphere the seasons flow Summer > Autumn > Winter > Spring. Spring should sit at position 2 in the Canadian context, and position 4 in the Australian context.

In R we give ordered labels to data values by creating factors. To see what happens to a column of data when it is converted to a factor, we use the str() command, which stands for ‘data structure’.

Let’s load the tidyverse and mutate the number of engine cylinders in the mpg data into factor.

library(tidyverse)

mpg %>% mutate(cyl_factor = factor(cyl))

## # A tibble: 234 × 12
##    manufacturer model      displ  year   cyl trans      drv     cty   hwy fl    class  cyl_factor
##    <chr>        <chr>      <dbl> <int> <int> <chr>      <chr> <int> <int> <chr> <chr>  <fct>     
##  1 audi         a4           1.8  1999     4 auto(l5)   f        18    29 p     compa… 4         
##  2 audi         a4           1.8  1999     4 manual(m5) f        21    29 p     compa… 4         
##  3 audi         a4           2    2008     4 manual(m6) f        20    31 p     compa… 4         
##  4 audi         a4           2    2008     4 auto(av)   f        21    30 p     compa… 4         
##  5 audi         a4           2.8  1999     6 auto(l5)   f        16    26 p     compa… 6         
##  6 audi         a4           2.8  1999     6 manual(m5) f        18    26 p     compa… 6         
##  7 audi         a4           3.1  2008     6 auto(av)   f        18    27 p     compa… 6         
##  8 audi         a4 quattro   1.8  1999     4 manual(m5) 4        18    26 p     compa… 4         
##  9 audi         a4 quattro   1.8  1999     4 auto(l5)   4        16    25 p     compa… 4         
## 10 audi         a4 quattro   2    2008     4 manual(m6) 4        20    28 p     compa… 4         
## # ℹ 224 more rows
…
